acls:
  enable: false
  modify_groups: []
  modify_users: []
  ui_users: []
  view_groups: []
  view_users: []
file_systems: []
master:
  env:
    SPARK_CONF_DIR: /etc/spark3/conf
    SPARK_HOME: /usr/lib/spark3
  files:
    airflow.keytab:
      size: 0
      source: file:///pytest/path/to/airflow.keytab
      timestamp: 0
      type: FILE
      visibility: APPLICATION
  log_level: INFO
  resources:
    fpgas: 0
    gpus: 0
    memory: 4096
    vcores: 1
  script: spark3-submit --driver-cores 2 --conf spark.executorEnv.SPARK_HOME=/usr/lib/spark3
    --conf spark.executorEnv.SPARK_CONF_DIR=/etc/spark3/conf --master yarn --conf
    spark.dynamicAllocation.enabled=true --conf spark.dynamicAllocation.maxExecutors=48
    --conf spark.shuffle.service.enabled=true --conf spark.yarn.maxAppAttempts=1 --conf
    spark.hadoop.fs.permissions.umask-mode=0022 --conf spark.sql.shuffle.partitions=4096
    --conf spark.yarn.appMasterEnv.SPARK_CONF_DIR=/etc/spark3/conf --conf spark.yarn.appMasterEnv.SPARK_HOME=/usr/lib/spark3
    --executor-cores 4 --executor-memory 24g --driver-memory 8g --keytab airflow.keytab
    --principal airflow --name subgraph_mapping_weekly__map_subgraphs__20220715 --class
    org.wikidata.query.rdf.spark.transform.structureddata.subgraphs.SubgraphMappingLauncher
    --queue production --deploy-mode cluster hdfs:///wmf/cache/artifacts/airflow/search/rdf-spark-tools-0.3.146-jar-with-dependencies.jar
    --wikidata-table discovery.wikibase_rdf/date=20220711/wiki=wikidata --all-subgraphs-table
    discovery.all_subgraphs/snapshot=20220711/wiki=wikidata --top-subgraph-items-table
    discovery.top_subgraph_items/snapshot=20220711/wiki=wikidata --top-subgraph-triples-table
    discovery.top_subgraph_triples/snapshot=20220711/wiki=wikidata --min-items 10000
max_attempts: 1
name: Airflow SparkSkeinSubmitHook skein launcher subgraph_mapping_weekly__map_subgraphs__20220715
node_label: ''
queue: production
services: {}
tags: []
user: ''
