acls:
  enable: false
  modify_groups: []
  modify_users: []
  ui_users: []
  view_groups: []
  view_users: []
file_systems: []
master:
  env:
    SPARK_CONF_DIR: /etc/spark3/conf
    SPARK_HOME: /usr/lib/spark3
  files:
    airflow.keytab:
      size: 0
      source: file:///pytest/path/to/airflow.keytab
      timestamp: 0
      type: FILE
      visibility: APPLICATION
  log_level: INFO
  resources:
    fpgas: 0
    gpus: 0
    memory: 4096
    vcores: 1
  script: spark3-submit --driver-cores 2 --conf spark.executorEnv.SPARK_HOME=/usr/lib/spark3
    --conf spark.executorEnv.SPARK_CONF_DIR=/etc/spark3/conf --master yarn --conf
    spark.dynamicAllocation.enabled=true --conf spark.dynamicAllocation.maxExecutors=32
    --conf spark.shuffle.service.enabled=true --conf spark.yarn.maxAppAttempts=1 --conf
    spark.hadoop.fs.permissions.umask-mode=0022 --conf spark.sql.shuffle.partitions=512
    --conf spark.executor.memoryOverhead=4g --conf spark.yarn.appMasterEnv.SPARK_CONF_DIR=/etc/spark3/conf
    --conf spark.yarn.appMasterEnv.SPARK_HOME=/usr/lib/spark3 --executor-cores 4 --executor-memory
    8g --driver-memory 8g --keytab airflow.keytab --principal airflow --name import_wikidata_ttl__export_n3_scholarly__20230217
    --class org.wikidata.query.rdf.spark.transform.structureddata.dumps.NTripleGenerator
    --queue production --deploy-mode cluster hdfs:///wmf/cache/artifacts/airflow/search/rdf-spark-tools-0.3.146-jar-with-dependencies.jar
    --input-table-partition-spec discovery.wikibase_rdf_subgraphs/snapshot=20230220/wiki=wikidata/scope=scholarly_articles
    --output-hdfs-path hdfs://analytics-hadoop/wmf/data/discovery/wikidata/munged_n3_dump//wikidata/scholarly/20230220
    --num-partitions 1024 --filename-format scholarly_articles.%04d.nt.gz
max_attempts: 1
name: Airflow SparkSkeinSubmitHook skein launcher import_wikidata_ttl__export_n3_scholarly__20230217
node_label: ''
queue: production
services: {}
tags: []
user: ''
