acls:
  enable: false
  modify_groups: []
  modify_users: []
  ui_users: []
  view_groups: []
  view_users: []
file_systems: []
master:
  env:
    PYSPARK_DRIVER_PYTHON: venv/bin/python
    PYSPARK_PYTHON: venv/bin/python
    SPARK_CONF_DIR: /etc/spark3/conf
    SPARK_HOME: /usr/lib/spark3
  files:
    airflow.keytab:
      size: 0
      source: file:///pytest/path/to/airflow.keytab
      timestamp: 0
      type: FILE
      visibility: APPLICATION
    venv:
      size: 0
      source: hdfs:///wmf/cache/artifacts/airflow/search/discolytics-0.26.0.conda.tgz
      timestamp: 0
      type: ARCHIVE
      visibility: APPLICATION
  log_level: INFO
  resources:
    fpgas: 0
    gpus: 0
    memory: 4096
    vcores: 1
  script: spark3-submit --driver-cores 2 --conf spark.executorEnv.PYSPARK_DRIVER_PYTHON=venv/bin/python
    --conf spark.executorEnv.PYSPARK_PYTHON=venv/bin/python --conf spark.executorEnv.SPARK_HOME=/usr/lib/spark3
    --conf spark.executorEnv.SPARK_CONF_DIR=/etc/spark3/conf --master yarn --conf
    spark.dynamicAllocation.enabled=true --conf spark.dynamicAllocation.maxExecutors=25
    --conf spark.shuffle.service.enabled=true --conf spark.yarn.maxAppAttempts=1 --conf
    spark.hadoop.fs.permissions.umask-mode=0027 --conf spark.executor.memoryOverhead=768
    --conf spark.driver.memoryOverhead=1024 --conf spark.yarn.appMasterEnv.SPARK_CONF_DIR=/etc/spark3/conf
    --conf spark.yarn.appMasterEnv.SPARK_HOME=/usr/lib/spark3 --conf spark.yarn.appMasterEnv.PYSPARK_PYTHON=venv/bin/python
    --conf spark.yarn.appMasterEnv.PYSPARK_DRIVER_PYTHON=venv/bin/python --archives
    'hdfs:///wmf/cache/artifacts/airflow/search/discolytics-0.26.0.conda.tgz#venv'
    --executor-cores 1 --executor-memory 3g --driver-memory 4g --keytab airflow.keytab
    --principal airflow --name transfer_to_es_weekly__convert_to_esbulk__20230326
    --queue production --deploy-mode cluster venv/bin/convert_to_esbulk.py --config
    weekly --namespace-map-table discovery.cirrus_namespace_index_map --output hdfs://analytics-hadoop/wmf/data/discovery/transfer_to_es/date=20230326/freq=weekly
    --datetime 2023-03-26T00:00:00+00:00
max_attempts: 1
name: Airflow SparkSkeinSubmitHook skein launcher transfer_to_es_weekly__convert_to_esbulk__20230326
node_label: ''
queue: production
services: {}
tags: []
user: ''
