snapshot_date	wiki_db	automoderator_status	automoderator_user_name
2024-09-29	idwiki	true	Automoderator
2024-09-29	testwiki	true	AutoModeratorTest
2024-09-29	trwiki	true	Otomoderatör
2024-09-29	ukwiki	true	Автомодератор
