acls:
  enable: false
  modify_groups: []
  modify_users: []
  ui_users: []
  view_groups: []
  view_users: []
file_systems: []
master:
  env:
    SPARK_CONF_DIR: /etc/spark3/conf
    SPARK_HOME: /usr/lib/spark3
  files:
    airflow.keytab:
      size: 0
      source: file:///pytest/path/to/airflow.keytab
      timestamp: 0
      type: FILE
      visibility: APPLICATION
  log_level: INFO
  resources:
    fpgas: 0
    gpus: 0
    memory: 3815
    vcores: 2
  script: spark3-submit --driver-cores 2 --conf spark.executorEnv.SPARK_HOME=/usr/lib/spark3
    --conf spark.executorEnv.SPARK_CONF_DIR=/etc/spark3/conf --master yarn --conf
    spark.sql.autoBroadcastJoinThreshold=-1 --conf spark.yarn.appMasterEnv.SPARK_CONF_DIR=/etc/spark3/conf
    --conf spark.yarn.appMasterEnv.SPARK_HOME=/usr/lib/spark3 --executor-cores 2 --executor-memory
    4G --driver-memory 4G --keytab airflow.keytab --principal airflow --name table_maintenance_iceberg_daily__wmf_dumps__wikitext_raw_rc2.rewrite_manifests__20240817
    --class org.apache.spark.sql.hive.thriftserver.WMFSparkSQLCLIDriver --queue production
    --deploy-mode client hdfs:///wmf/cache/artifacts/airflow/analytics/wmf-sparksqlclidriver-1.0.0.jar
    -e 'CALL spark_catalog.system.rewrite_manifests( table => '"'"'wmf_dumps.wikitext_raw_rc2'"'"'
    )'
max_attempts: 1
name: Airflow SparkSkeinSubmitHook skein launcher table_maintenance_iceberg_daily__wmf_dumps__wikitext_raw_rc2.rewrite_manifests__20240817
node_label: ''
queue: production
services: {}
tags: []
user: ''
