acls:
  enable: false
  modify_groups: []
  modify_users: []
  ui_users: []
  view_groups: []
  view_users: []
file_systems: []
master:
  env:
    SPARK_CONF_DIR: /etc/spark3/conf
    SPARK_HOME: /usr/lib/spark3
  files:
    airflow.keytab:
      size: 0
      source: file:///pytest/path/to/airflow.keytab
      timestamp: 0
      type: FILE
      visibility: APPLICATION
  log_level: INFO
  resources:
    fpgas: 0
    gpus: 0
    memory: 3815
    vcores: 2
  script: spark3-submit --driver-cores 2 --conf spark.executorEnv.SPARK_HOME=/usr/lib/spark3
    --conf spark.executorEnv.SPARK_CONF_DIR=/etc/spark3/conf --master yarn --conf
    spark.dynamicAllocation.enabled=true --conf spark.dynamicAllocation.maxExecutors=16
    --conf spark.shuffle.service.enabled=true --conf spark.yarn.maxAppAttempts=1 --conf
    spark.yarn.appMasterEnv.SPARK_CONF_DIR=/etc/spark3/conf --conf spark.yarn.appMasterEnv.SPARK_HOME=/usr/lib/spark3
    --executor-cores 2 --executor-memory 4G --driver-memory 4G --keytab airflow.keytab
    --principal airflow --name wmcs_report_monthly__pivot_wikis_by_wmcs_edits_percent__20240501
    --class org.wikimedia.analytics.refinery.job.DataPivoter --queue production --deploy-mode
    client hdfs:///wmf/cache/artifacts/airflow/analytics/refinery-job-0.2.33-shaded.jar
    --source_directory hdfs://analytics-hadoop/wmf/tmp/analytics/reports/wmcs/wikis_by_wmcs_edits_percent_2024-04-01
    --destination_directory hdfs://analytics-hadoop/wmf/tmp/analytics/reports/wmcs/wikis_by_wmcs_edits_percent_pivoted_2024-04-01
max_attempts: 1
name: Airflow SparkSkeinSubmitHook skein launcher wmcs_report_monthly__pivot_wikis_by_wmcs_edits_percent__20240501
node_label: ''
queue: production
services: {}
tags: []
user: ''
