acls:
  enable: false
  modify_groups: []
  modify_users: []
  ui_users: []
  view_groups: []
  view_users: []
file_systems: []
master:
  env:
    SPARK_CONF_DIR: /etc/spark3/conf
    SPARK_HOME: /usr/lib/spark3
  files:
    airflow.keytab:
      size: 0
      source: file:///pytest/path/to/airflow.keytab
      timestamp: 0
      type: FILE
      visibility: APPLICATION
  log_level: INFO
  resources:
    fpgas: 0
    gpus: 0
    memory: 3815
    vcores: 2
  script: spark3-submit --driver-cores 2 --conf spark.executorEnv.SPARK_HOME=/usr/lib/spark3
    --conf spark.executorEnv.SPARK_CONF_DIR=/etc/spark3/conf --master yarn --conf
    spark.sql.catalog.aqs=com.datastax.spark.connector.datasource.CassandraCatalog
    --conf spark.sql.catalog.aqs.spark.cassandra.connection.host=aqs1010-a.eqiad.wmnet:9042,aqs1011-a.eqiad.wmnet:9042,aqs1012-a.eqiad.wmnet:9042
    --conf spark.sql.catalog.aqs.spark.cassandra.auth.username=aqsloader --conf spark.sql.catalog.aqs.spark.cassandra.auth.password=cassandra
    --conf spark.sql.catalog.aqs.spark.cassandra.output.batch.size.rows=1024 --conf
    spark.sql.catalog.aqs.spark.cassandra.connection.ssl.enabled=true --conf spark.sql.catalog.aqs.spark.cassandra.connection.ssl.trustStore.path=/etc/ssl/localcerts/wmf-java-cacerts
    --conf spark.sql.catalog.aqs.spark.cassandra.connection.ssl.enabledAlgorithms=TLS_AES_256_GCM_SHA384,TLS_AES_128_GCM_SHA256
    --conf spark.dynamicAllocation.enabled=true --conf spark.dynamicAllocation.maxExecutors=16
    --conf spark.shuffle.service.enabled=true --conf spark.yarn.maxAppAttempts=1 --conf
    spark.yarn.appMasterEnv.SPARK_CONF_DIR=/etc/spark3/conf --conf spark.yarn.appMasterEnv.SPARK_HOME=/usr/lib/spark3
    --jars hdfs:///wmf/cache/artifacts/airflow/analytics/spark-cassandra-connector-assembly-3.2.0-WMF-1.jar,hdfs:///wmf/cache/artifacts/airflow/analytics/refinery-job-0.2.17-shaded.jar
    --executor-cores 2 --executor-memory 4G --driver-memory 4G --keytab airflow.keytab
    --principal airflow --name load_commons_impact_metrics__load_cassandra_commons_top_viewed_media_files_monthly__20231201
    --class org.apache.spark.sql.hive.thriftserver.WMFSparkSQLCLIDriver --queue production
    --deploy-mode client hdfs:///wmf/cache/artifacts/airflow/analytics/wmf-sparksqlclidriver-1.0.0.jar
    -f hdfs://analytics-hadoop/wmf/refinery/current/hql/cassandra/monthly/load_cassandra_commons_top_viewed_media_files_monthly.hql
    -d source_table=wmf_contributors.commons_pageviews_per_media_file_monthly -d destination_table=aqs.commons.top_viewed_media_files_monthly
    -d coalesce_partitions=6 -d year_month=2023-11
max_attempts: 1
name: Airflow SparkSkeinSubmitHook skein launcher load_commons_impact_metrics__load_cassandra_commons_top_viewed_media_files_monthly__20231201
node_label: ''
queue: production
services: {}
tags: []
user: ''
