acls:
  enable: false
  modify_groups: []
  modify_users: []
  ui_users: []
  view_groups: []
  view_users: []
file_systems: []
master:
  env:
    PYSPARK_DRIVER_PYTHON: venv/bin/python
    PYSPARK_PYTHON: venv/bin/python
    SPARK_CONF_DIR: /etc/spark3/conf
    SPARK_HOME: /usr/lib/spark3
  files:
    airflow.keytab:
      size: 0
      source: file:///pytest/path/to/airflow.keytab
      timestamp: 0
      type: FILE
      visibility: APPLICATION
    venv:
      size: 0
      source: hdfs:///wmf/cache/artifacts/airflow/analytics_product/automoderator-metrics-jobs-0.3.0-v0.3.0.conda.tgz
      timestamp: 0
      type: ARCHIVE
      visibility: APPLICATION
  log_level: INFO
  resources:
    fpgas: 0
    gpus: 0
    memory: 7630
    vcores: 4
  script: venv/bin/spark-submit --driver-cores 4 --conf spark.executorEnv.PYSPARK_DRIVER_PYTHON=venv/bin/python
    --conf spark.executorEnv.PYSPARK_PYTHON=venv/bin/python --conf spark.executorEnv.SPARK_HOME=/usr/lib/spark3
    --conf spark.executorEnv.SPARK_CONF_DIR=/etc/spark3/conf --master yarn --conf
    spark.jars=hdfs:///wmf/cache/artifacts/airflow/analytics_product/mysql-connector-j-8.2.0.jar,hdfs:///wmf/cache/artifacts/airflow/analytics_product/refinery-spark-0.2.51.jar
    --conf spark.yarn.appMasterEnv.SPARK_CONF_DIR=/etc/spark3/conf --conf spark.yarn.appMasterEnv.SPARK_HOME=/usr/lib/spark3
    --conf spark.yarn.appMasterEnv.PYSPARK_PYTHON=venv/bin/python --conf spark.yarn.appMasterEnv.PYSPARK_DRIVER_PYTHON=venv/bin/python
    --archives 'hdfs:///wmf/cache/artifacts/airflow/analytics_product/automoderator-metrics-jobs-0.3.0-v0.3.0.conda.tgz#venv'
    --executor-cores 8 --executor-memory 8G --driver-memory 8G --keytab airflow.keytab
    --principal airflow --name automoderator_monitoring_snapshot_daily__fetch_snapshots.fetch_automoderator_daily_snapshot__20241002
    --queue production --deploy-mode client venv/bin/fetch_automoderator_daily_snapshot.py
    --wiki_db idwiki --destination_table wmf_product.automoderator_monitoring_snapshot_daily
    --tmp_dir_path hdfs://analytics-hadoop/wmf/tmp/analytics_product/automoderator/daily_snaphots/idwiki
    --mariadb_pw_file /user/analytics-product/mysql-analytics-research-client-pw.txt
max_attempts: 1
name: Airflow SparkSkeinSubmitHook skein launcher automoderator_monitoring_snapshot_daily__fetch_snapshots.fetch_automoderator_daily_snapshot__20241002
node_label: ''
queue: production
services: {}
tags: []
user: ''
