acls:
  enable: false
  modify_groups: []
  modify_users: []
  ui_users: []
  view_groups: []
  view_users: []
file_systems: []
master:
  env:
    PYSPARK_DRIVER_PYTHON: venv/bin/python
    PYSPARK_PYTHON: venv/bin/python
    SPARK_CONF_DIR: /etc/spark3/conf
    SPARK_HOME: /usr/lib/spark3
  files:
    airflow.keytab:
      size: 0
      source: file:///pytest/path/to/airflow.keytab
      timestamp: 0
      type: FILE
      visibility: APPLICATION
    venv:
      size: 0
      source: hdfs:///wmf/cache/artifacts/airflow/research/research_datasets.tgz
      timestamp: 0
      type: ARCHIVE
      visibility: APPLICATION
  log_level: INFO
  resources:
    fpgas: 0
    gpus: 0
    memory: 3815
    vcores: 2
  script: 'spark3-submit --driver-cores 2 --conf spark.executorEnv.PYSPARK_DRIVER_PYTHON=venv/bin/python
    --conf spark.executorEnv.PYSPARK_PYTHON=venv/bin/python --conf spark.executorEnv.SPARK_HOME=/usr/lib/spark3
    --conf spark.executorEnv.SPARK_CONF_DIR=/etc/spark3/conf --master yarn --conf
    spark.sql.shuffle.partitions=512 --conf spark.hadoop.fs.permissions.umask-mode=022
    --conf spark.shuffle.io.maxRetries=10 --conf spark.task.maxFailures=10 --conf
    spark.dynamicAllocation.maxExecutors=98 --conf spark.executor.memoryOverhead=4G
    --conf spark.yarn.appMasterEnv.SPARK_CONF_DIR=/etc/spark3/conf --conf spark.yarn.appMasterEnv.SPARK_HOME=/usr/lib/spark3
    --conf spark.yarn.appMasterEnv.PYSPARK_PYTHON=venv/bin/python --conf spark.yarn.appMasterEnv.PYSPARK_DRIVER_PYTHON=venv/bin/python
    --archives ''hdfs:///wmf/cache/artifacts/airflow/research/research_datasets.tgz#venv''
    --executor-cores 4 --executor-memory 16G --driver-memory 4G --keytab airflow.keytab
    --principal airflow --name risk_observatory__aggregate_statistics__20190301 --queue
    production --deploy-mode client venv/bin/research_datasets_pipelines.py riskobservatory.pipeline.runriskstatisticscomputation
    ''{"snapshot": "2019-02", "hdfs_dir": "/tmp/research/risk_observatory/2019-02-01_2019-03-01",
    "hive_database": "risk_observatory_dev"}'''
max_attempts: 1
name: Airflow SparkSkeinSubmitHook skein launcher risk_observatory__aggregate_statistics__20190301
node_label: ''
queue: production
services: {}
tags: []
user: ''
