acls:
  enable: false
  modify_groups: []
  modify_users: []
  ui_users: []
  view_groups: []
  view_users: []
file_systems: []
master:
  env:
    PYSPARK_DRIVER_PYTHON: venv/bin/python
    PYSPARK_PYTHON: venv/bin/python
    SPARK_CONF_DIR: /etc/spark3/conf
    SPARK_HOME: /usr/lib/spark3
  files:
    airflow.keytab:
      size: 0
      source: file:///pytest/path/to/airflow.keytab
      timestamp: 0
      type: FILE
      visibility: APPLICATION
    venv:
      size: 0
      source: hdfs:///wmf/cache/artifacts/airflow/research/research_datasets.tgz
      timestamp: 0
      type: ARCHIVE
      visibility: APPLICATION
  log_level: INFO
  resources:
    fpgas: 0
    gpus: 0
    memory: 30518
    vcores: 4
  script: 'spark3-submit --driver-cores 4 --conf spark.executorEnv.PYSPARK_DRIVER_PYTHON=venv/bin/python
    --conf spark.executorEnv.PYSPARK_PYTHON=venv/bin/python --conf spark.executorEnv.SPARK_HOME=/usr/lib/spark3
    --conf spark.executorEnv.SPARK_CONF_DIR=/etc/spark3/conf --master yarn --conf
    spark.hadoop.fs.permissions.umask-mode=022 --conf spark.sql.sources.partitionOverwriteMode=dynamic
    --conf spark.sql.shuffle.partitions=16384 --conf spark.driver.maxResultSize=2G
    --conf spark.network.timeout=512s --conf spark.shuffle.io.retryWait=60s --conf
    spark.shuffle.io.maxRetries=10 --conf spark.dynamicAllocation.maxExecutors=128
    --conf spark.executor.memoryOverhead=4G --conf spark.yarn.appMasterEnv.SPARK_CONF_DIR=/etc/spark3/conf
    --conf spark.yarn.appMasterEnv.SPARK_HOME=/usr/lib/spark3 --conf spark.yarn.appMasterEnv.PYSPARK_PYTHON=venv/bin/python
    --conf spark.yarn.appMasterEnv.PYSPARK_DRIVER_PYTHON=venv/bin/python --archives
    ''hdfs:///wmf/cache/artifacts/airflow/research/research_datasets.tgz#venv'' --executor-cores
    4 --executor-memory 20G --driver-memory 32G --keytab airflow.keytab --principal
    airflow --name reference_risk_features__compute_reference_risk_features__20241001
    --queue production --deploy-mode client venv/bin/research_datasets_pipelines.py
    referencequality.pipeline.run ''{"mediawiki_snapshot": "2024-09", "output": "/tmp/research/reference_risk/features",
    "partitions": 8, "sqlite_db": "/tmp/research/reference_risk/inference/20240901/features.db",
    "wikis": null}'''
max_attempts: 1
name: Airflow SparkSkeinSubmitHook skein launcher reference_risk_features__compute_reference_risk_features__20241001
node_label: ''
queue: production
services: {}
tags: []
user: ''
