acls:
  enable: false
  modify_groups: []
  modify_users: []
  ui_users: []
  view_groups: []
  view_users: []
file_systems: []
master:
  env: {}
  files:
    airflow.keytab:
      size: 0
      source: file:///pytest/path/to/airflow.keytab
      timestamp: 0
      type: FILE
      visibility: APPLICATION
    hdfs_tools_shaded_jar_path:
      size: 0
      source: hdfs:///wmf/cache/artifacts/airflow/analytics/hdfs-tools-0.0.6-shaded.jar
      timestamp: 0
      type: FILE
      visibility: APPLICATION
  log_level: INFO
  resources:
    fpgas: 0
    gpus: 0
    memory: 1024
    vcores: 1
  script: kinit -k -t airflow.keytab airflow && java -cp hdfs_tools_shaded_jar_path:$(hadoop
    classpath) org.wikimedia.analytics.hdfstools.HDFSArchiver --source_directory "hdfs://analytics-hadoop/wmf/tmp/analytics/reports/pingback/tmp/php_drilldown_MediaWiki_Version_1.28_2023-09-10"
    --archive_file "hdfs://analytics-hadoop/wmf/data/published/datasets/periodic/reports/metrics/pingback/php_drilldown/1.28.tsv"
    --archive_parent_umask 022 --archive_perms 644 --expected_filename_ending ".csv"
    --check_done true --done_file "_SUCCESS"
max_attempts: 1
name: pingback_report_weekly_v2__move_compute_php_drilldown_MediaWiki_Version_1.28__20230917
node_label: ''
queue: production
services: {}
tags: []
user: ''
