acls:
  enable: false
  modify_groups: []
  modify_users: []
  ui_users: []
  view_groups: []
  view_users: []
file_systems: []
master:
  env: {}
  files:
    airflow.keytab:
      size: 0
      source: file:///pytest/path/to/airflow.keytab
      timestamp: 0
      type: FILE
      visibility: APPLICATION
    hdfs_tools_shaded_jar_path:
      size: 0
      source: hdfs:///wmf/cache/artifacts/airflow/analytics/hdfs-tools-0.0.6-shaded.jar
      timestamp: 0
      type: FILE
      visibility: APPLICATION
  log_level: INFO
  resources:
    fpgas: 0
    gpus: 0
    memory: 1024
    vcores: 1
  script: kinit -k -t airflow.keytab airflow && java -cp hdfs_tools_shaded_jar_path:$(hadoop
    classpath) org.wikimedia.analytics.hdfstools.HDFSArchiver --source_directory "hdfs://analytics-hadoop/wmf/tmp/analytics/projectview_geo/2022092601"
    --archive_file "hdfs://analytics-hadoop/wmf/data/archive/projectview/geo/hourly/2022/2022-09/projectviews-geo-20220926-010000.gz"
    --archive_parent_umask 027 --archive_perms 640 --expected_filename_ending ".gz"
    --check_done true --done_file "_SUCCESS"
max_attempts: 1
name: projectview_geo__move_data_to_archive__20220926
node_label: ''
queue: production
services: {}
tags: []
user: ''
