acls:
  enable: false
  modify_groups: []
  modify_users: []
  ui_users: []
  view_groups: []
  view_users: []
file_systems: []
master:
  env:
    PYSPARK_DRIVER_PYTHON: venv/bin/python
    PYSPARK_PYTHON: venv/bin/python
    SPARK_CONF_DIR: /etc/spark3/conf
    SPARK_HOME: /usr/lib/spark3
  files:
    airflow.keytab:
      size: 0
      source: file:///pytest/path/to/airflow.keytab
      timestamp: 0
      type: FILE
      visibility: APPLICATION
    labse:
      size: 0
      source: hdfs:///wmf/cache/artifacts/airflow/platform_eng/labse.tgz
      timestamp: 0
      type: ARCHIVE
      visibility: APPLICATION
    venv:
      size: 0
      source: hdfs:///wmf/cache/artifacts/airflow/platform_eng/seal-0.2.0-v0.2.0.conda.tgz
      timestamp: 0
      type: ARCHIVE
      visibility: APPLICATION
  log_level: INFO
  resources:
    fpgas: 0
    gpus: 0
    memory: 7630
    vcores: 2
  script: spark3-submit --driver-cores 2 --conf spark.executorEnv.PYSPARK_DRIVER_PYTHON=venv/bin/python
    --conf spark.executorEnv.PYSPARK_PYTHON=venv/bin/python --conf spark.executorEnv.SPARK_HOME=/usr/lib/spark3
    --conf spark.executorEnv.SPARK_CONF_DIR=/etc/spark3/conf --master yarn --conf
    spark.dynamicAllocation.maxExecutors=128 --conf spark.sql.shuffle.partitions=512
    --conf spark.executor.memoryOverhead=6g --conf spark.yarn.appMasterEnv.SPARK_CONF_DIR=/etc/spark3/conf
    --conf spark.yarn.appMasterEnv.SPARK_HOME=/usr/lib/spark3 --conf spark.yarn.appMasterEnv.PYSPARK_PYTHON=venv/bin/python
    --conf spark.yarn.appMasterEnv.PYSPARK_DRIVER_PYTHON=venv/bin/python --archives
    'hdfs:///wmf/cache/artifacts/airflow/platform_eng/seal-0.2.0-v0.2.0.conda.tgz#venv,hdfs:///wmf/cache/artifacts/airflow/platform_eng/labse.tgz#labse'
    --executor-cores 2 --executor-memory 12g --driver-memory 8g --keytab airflow.keytab
    --principal airflow --name seal__encode_embeddings__20231002 --queue production
    --deploy-mode client venv/lib/python3.10/site-packages/seal/embeddings.py 2023-09-25
    --work-dir /user/analytics-platform-eng/structured-data/seal
max_attempts: 1
name: Airflow SparkSkeinSubmitHook skein launcher seal__encode_embeddings__20231002
node_label: ''
queue: production
services: {}
tags: []
user: ''
