acls:
  enable: false
  modify_groups: []
  modify_users: []
  ui_users: []
  view_groups: []
  view_users: []
file_systems: []
master:
  env:
    SPARK_CONF_DIR: /etc/spark3/conf
    SPARK_HOME: /usr/lib/spark3
  files:
    airflow.keytab:
      size: 0
      source: file:///pytest/path/to/airflow.keytab
      timestamp: 0
      type: FILE
      visibility: APPLICATION
  log_level: INFO
  resources:
    fpgas: 0
    gpus: 0
    memory: 11445
    vcores: 2
  script: spark3-submit --driver-cores 2 --conf spark.executorEnv.SPARK_HOME=/usr/lib/spark3
    --conf spark.executorEnv.SPARK_CONF_DIR=/etc/spark3/conf --master yarn --conf
    spark.dynamicAllocation.enabled=true --conf spark.dynamicAllocation.maxExecutors=64
    --conf spark.shuffle.service.enabled=true --conf spark.yarn.maxAppAttempts=1 --conf
    spark.sql.shuffle.partitions=256 --conf spark.sql.sources.partitionOverwriteMode=dynamic
    --conf spark.yarn.appMasterEnv.SPARK_CONF_DIR=/etc/spark3/conf --conf spark.yarn.appMasterEnv.SPARK_HOME=/usr/lib/spark3
    --executor-cores 4 --executor-memory 20G --driver-memory 12G --keytab airflow.keytab
    --principal airflow --name image_suggestions__write_empty_search_index_delta__20220530
    --class org.apache.spark.sql.hive.thriftserver.WMFSparkSQLCLIDriver --queue production
    --deploy-mode client hdfs:///wmf/cache/artifacts/airflow/platform_eng/wmf-sparksqlclidriver-1.0.0.jar
    -e 'INSERT OVERWRITE TABLE analytics_platform_eng.image_suggestions_search_index_delta
    partition(snapshot='"'"'2022-05-23'"'"') SELECT '"'"''"'"' as wikiid, 0 as page_namespace,
    0 as page_id, '"'"''"'"' as tag, array() as `values` where 0=1'
max_attempts: 1
name: Airflow SparkSkeinSubmitHook skein launcher image_suggestions__write_empty_search_index_delta__20220530
node_label: ''
queue: production
services: {}
tags: []
user: ''
